\relax 
\providecommand\hyper@newdestlabel[2]{}
\providecommand\HyperFirstAtBeginDocument{\AtBeginDocument}
\HyperFirstAtBeginDocument{\ifx\hyper@anchor\@undefined
\global\let\oldcontentsline\contentsline
\gdef\contentsline#1#2#3#4{\oldcontentsline{#1}{#2}{#3}}
\global\let\oldnewlabel\newlabel
\gdef\newlabel#1#2{\newlabelxx{#1}#2}
\gdef\newlabelxx#1#2#3#4#5#6{\oldnewlabel{#1}{{#2}{#3}}}
\AtEndDocument{\ifx\hyper@anchor\@undefined
\let\contentsline\oldcontentsline
\let\newlabel\oldnewlabel
\fi}
\fi}
\global\let\hyper@last\relax 
\gdef\HyperFirstAtBeginDocument#1{#1}
\providecommand\HyField@AuxAddToFields[1]{}
\providecommand\HyField@AuxAddToCoFields[2]{}
\emailauthor{yujie.zhu@tum.de}{Yujie Zhu \fnref {eqnote}}
\emailauthor{c.zhang@tum.de}{Chi Zhang \fnref {eqnote}}
\emailauthor{xiangyu.hu@tum.de}{Xiangyu Hu \corref {mycorrespondingauthor}}
\Newlabel{mycorrespondingauthor}{1}
\Newlabel{eqnote}{1}
\citation{belytschko1996meshless,liu2005introduction,liu2010smoothed,wang2019improvement,vacondio2021grand}
\citation{monaghan2012smoothed,ye2019smoothed,luo2019consistent,luo2021particle,gotoh2018state}
\citation{lucy1977numerical}
\citation{gingold1977smoothed}
\citation{monaghan1994simulating,shao2006simulation,zhang2017weakly,zhang2019weakly,peng2019improved}
\citation{benz1995simulations,randles1996smoothed,monaghan2000sph,zhang2017generalized,ba2018thermomechanical}
\citation{antoci2007,zhang2020multi}
\citation{zhang2020integrative}
\citation{chen2000generalized,bonet2002simplified,liu2005modeling,liu2006restoring,dyka1997stress,randles2000normalized}
\citation{otter1966dynamic,belytschko2013nonlinear,jung2018dynamic}
\@writefile{toc}{\contentsline {section}{\numberline {1}Introduction}{2}{section.1}}
\newlabel{sec1}{{1}{2}{Introduction}{section.1}{}}
\citation{rodriguez2011numerical,alamatian2012new,rezaiee2014fictitious}
\citation{lin2014efficient}
\citation{lee2011simple}
\citation{cundall1976explicit}
\citation{jung2018dynamic}
\citation{douthe2009design,lee2011simple}
\citation{alamatian2012new,zardi2020new}
\citation{lin2014efficient}
\citation{contreras2008characterizing}
\citation{zhang2020sphinxsys,zhang2021sphinxsys}
\citation{vignjevic2006sph}
\@writefile{toc}{\contentsline {section}{\numberline {2}Governing equation and preliminary work}{5}{section.2}}
\newlabel{preliminary}{{2}{5}{Governing equation and preliminary work}{section.2}{}}
\newlabel{momentum-equation}{{1}{5}{Governing equation and preliminary work}{equation.2.1}{}}
\newlabel{fluid-surface-force}{{2}{5}{Governing equation and preliminary work}{equation.2.2}{}}
\citation{zhang2017weakly,zhang2020multi}
\citation{vignjevic2006sph,zhang2020integrative}
\citation{han2018sph,zhang2020multi}
\citation{zhang2020multi}
\newlabel{solid-surface-force}{{3}{6}{Governing equation and preliminary work}{equation.2.3}{}}
\@writefile{toc}{\contentsline {section}{\numberline {3}Dynamic relaxation method}{6}{section.3}}
\newlabel{dynamic relaxation}{{3}{6}{Dynamic relaxation method}{section.3}{}}
\newlabel{momentum-conservation-m}{{4}{6}{Dynamic relaxation method}{equation.3.4}{}}
\newlabel{damping-term}{{5}{6}{Dynamic relaxation method}{equation.3.5}{}}
\citation{wang2019split}
\citation{mclachlan2002splitting}
\citation{litvinov2010splitting,monaghan2019integration}
\citation{strang1968}
\newlabel{viscous-criteria-o}{{6}{7}{Dynamic relaxation method}{equation.3.6}{}}
\newlabel{fist-step-m}{{7}{7}{Dynamic relaxation method}{equation.3.7}{}}
\newlabel{second-step-m}{{8}{7}{Dynamic relaxation method}{equation.3.8}{}}
\newlabel{operator-splitting}{{9}{7}{Dynamic relaxation method}{equation.3.9}{}}
\citation{nguyen2009mass}
\newlabel{particle-by-particle splitting}{{10}{8}{Dynamic relaxation method}{equation.3.10}{}}
\@writefile{toc}{\contentsline {subsection}{\numberline {3.1}Particle-by-particle splitting scheme}{8}{subsection.3.1}}
\newlabel{subsec:semi-implicit}{{3.1}{8}{Particle-by-particle splitting scheme}{subsection.3.1}{}}
\newlabel{damping-term-implicit}{{11}{8}{Particle-by-particle splitting scheme}{equation.3.11}{}}
\newlabel{parameters1}{{12}{8}{Particle-by-particle splitting scheme}{equation.3.12}{}}
\citation{nielsen2015neural}
\citation{nielsen2015neural}
\newlabel{parameters2}{{13}{9}{Particle-by-particle splitting scheme}{equation.3.13}{}}
\newlabel{implicit-equation}{{14}{9}{Particle-by-particle splitting scheme}{equation.3.14}{}}
\newlabel{gradient-E}{{15}{9}{Particle-by-particle splitting scheme}{equation.3.15}{}}
\newlabel{gradient-learning-rate}{{16}{9}{Particle-by-particle splitting scheme}{equation.3.16}{}}
\newlabel{learning-rate-solve}{{17}{9}{Particle-by-particle splitting scheme}{equation.3.17}{}}
\newlabel{first-step}{{18}{10}{Particle-by-particle splitting scheme}{equation.3.18}{}}
\newlabel{second-step}{{19}{10}{Particle-by-particle splitting scheme}{equation.3.19}{}}
\newlabel{viscous-criteria}{{20}{10}{Particle-by-particle splitting scheme}{equation.3.20}{}}
\newlabel{viscous-parameter}{{21}{10}{Particle-by-particle splitting scheme}{equation.3.21}{}}
\citation{litvinov2010splitting}
\citation{strang1968}
\newlabel{viscous-parameter-fluids}{{22}{11}{Particle-by-particle splitting scheme}{equation.3.22}{}}
\@writefile{toc}{\contentsline {subsection}{\numberline {3.2}Pairwise splitting scheme}{11}{subsection.3.2}}
\newlabel{subsec:pairwise-splitting}{{3.2}{11}{Pairwise splitting scheme}{subsection.3.2}{}}
\newlabel{pairwise-splitting}{{23}{11}{Pairwise splitting scheme}{equation.3.23}{}}
\newlabel{pairwise-eq}{{24}{11}{Pairwise splitting scheme}{equation.3.24}{}}
\newlabel{pairwise-solve}{{25}{11}{Pairwise splitting scheme}{equation.3.25}{}}
\citation{lin2014efficient}
\citation{lin2014efficient,crisfield1997non}
\@writefile{toc}{\contentsline {subsection}{\numberline {3.3}Random-choice strategy}{12}{subsection.3.3}}
\newlabel{subsec:random-chosen}{{3.3}{12}{Random-choice strategy}{subsection.3.3}{}}
\newlabel{viscosity-reset}{{26}{12}{Random-choice strategy}{equation.3.26}{}}
\citation{liu2003smoothed}
\citation{wendland1995}
\@writefile{toc}{\contentsline {subsection}{\numberline {3.4}Splitting cell-linked list }{13}{subsection.3.4}}
\newlabel{subsec:splitting cell-linked list}{{3.4}{13}{Splitting cell-linked list}{subsection.3.4}{}}
\@writefile{lof}{\contentsline {figure}{\numberline {1}{\ignorespaces Sketch of the splitting CLL method in two-dimensional space. For example, the cells are assigned to block $1$ with the condition $\left ( \text  {Cell}_i \subset \text  {Block}1 \middle | \left \delimiter "4266308 i = 1,4,7,28,31,34 \right \delimiter "5267309 \right ) $ and the cells are assigned to block $9$ with the condition $\left ( \text  {Cell}_i \subset \text  {Block}9 \middle | \left \delimiter "4266308 i = 21,24,27,48,51,54 \right \delimiter "5267309 \right ) $. \relax }}{14}{figure.caption.1}}
\providecommand*\caption@xref[2]{\@setref\relax\@undefined{#1}}
\newlabel{split-cell-linked}{{1}{14}{Sketch of the splitting CLL method in two-dimensional space. For example, the cells are assigned to block $1$ with the condition $\left ( \text {Cell}_i \subset \text {Block}1 \middle | \left \lbrace i = 1,4,7,28,31,34 \right \rbrace \right ) $ and the cells are assigned to block $9$ with the condition $\left ( \text {Cell}_i \subset \text {Block}9 \middle | \left \lbrace i = 21,24,27,48,51,54 \right \rbrace \right ) $. \relax }{figure.caption.1}{}}
\@writefile{toc}{\contentsline {section}{\numberline {4}Numerical examples}{14}{section.4}}
\newlabel{validation}{{4}{14}{Numerical examples}{section.4}{}}
\@writefile{toc}{\contentsline {subsection}{\numberline {4.1}Bending cantilever}{15}{subsection.4.1}}
\newlabel{bending-cantilever}{{4.1}{15}{Bending cantilever}{subsection.4.1}{}}
\@writefile{lof}{\contentsline {figure}{\numberline {2}{\ignorespaces Bending cantilever: Initial configuration. Probe $S$ is located at the free-end of the cantilever. \relax }}{17}{figure.caption.2}}
\newlabel{figs:bending-cantilever-setup}{{2}{17}{Bending cantilever: Initial configuration. Probe $S$ is located at the free-end of the cantilever. \relax }{figure.caption.2}{}}
\@writefile{lof}{\contentsline {figure}{\numberline {3}{\ignorespaces Bending cantilever: Comparisons of the time history displacement of point $S$ at the resolution of $h/dp = 12$ by particle-by-particle splitting scheme (top panel) and the pairwise splitting scheme (bottom panel). \relax }}{18}{figure.caption.3}}
\newlabel{figs:bending-cantilever-compare}{{3}{18}{Bending cantilever: Comparisons of the time history displacement of point $S$ at the resolution of $h/dp = 12$ by particle-by-particle splitting scheme (top panel) and the pairwise splitting scheme (bottom panel). \relax }{figure.caption.3}{}}
\@writefile{toc}{\contentsline {subsection}{\numberline {4.2}Twisting cantilever}{18}{subsection.4.2}}
\newlabel{twisting-cantilever}{{4.2}{18}{Twisting cantilever}{subsection.4.2}{}}
\newlabel{rotation-body-force}{{27}{18}{Twisting cantilever}{equation.4.27}{}}
\@writefile{lot}{\contentsline {table}{\numberline {1}{\ignorespaces CPU time for viscous damping process in the simulation of Bending cantilever with different parameters.\relax }}{19}{table.caption.4}}
\newlabel{bending-cantilever-time}{{1}{19}{CPU time for viscous damping process in the simulation of Bending cantilever with different parameters.\relax }{table.caption.4}{}}
\@writefile{lof}{\contentsline {figure}{\numberline {4}{\ignorespaces Bending cantilever: Deformed configuration in steady state at resolution of $h/dp = 6$ (left panel), $h/dp = 12$ (middle panel) and $h/dp = 24$ (right panel). \relax }}{19}{figure.caption.5}}
\newlabel{figs:bending-cantilever-configuration}{{4}{19}{Bending cantilever: Deformed configuration in steady state at resolution of $h/dp = 6$ (left panel), $h/dp = 12$ (middle panel) and $h/dp = 24$ (right panel). \relax }{figure.caption.5}{}}
\@writefile{lof}{\contentsline {figure}{\numberline {5}{\ignorespaces Bending cantilever: The time history displacement of the end point $S$ in vertical direction obtained by conventional method (top panel) and the present method (bottom panel). \relax }}{20}{figure.caption.6}}
\newlabel{figs:bending-cantilever-three-resolution}{{5}{20}{Bending cantilever: The time history displacement of the end point $S$ in vertical direction obtained by conventional method (top panel) and the present method (bottom panel). \relax }{figure.caption.6}{}}
\@writefile{toc}{\contentsline {subsection}{\numberline {4.3}Ball collisions}{20}{subsection.4.3}}
\newlabel{ball collisions}{{4.3}{20}{Ball collisions}{subsection.4.3}{}}
\@writefile{lof}{\contentsline {figure}{\numberline {6}{\ignorespaces Twisting cantilever: Initial configuration. Probe $S$ locates at the free-end of the cantilever. \relax }}{21}{figure.caption.7}}
\newlabel{figs:twisting-cantilever-setup}{{6}{21}{Twisting cantilever: Initial configuration. Probe $S$ locates at the free-end of the cantilever. \relax }{figure.caption.7}{}}
\@writefile{lof}{\contentsline {figure}{\numberline {7}{\ignorespaces Twisting cantilever: Four time instants as labeled by blue dots in Figure \ref  {figs:twisting-cantilever-compare} of deformation and von Mises stress. \relax }}{21}{figure.caption.8}}
\newlabel{figs:twisting-cantilever-contour}{{7}{21}{Twisting cantilever: Four time instants as labeled by blue dots in Figure \ref {figs:twisting-cantilever-compare} of deformation and von Mises stress. \relax }{figure.caption.8}{}}
\@writefile{lof}{\contentsline {figure}{\numberline {8}{\ignorespaces Twisting cantilever: The time history of displacement at the end point $S$ in $z-$ direction. \relax }}{22}{figure.caption.9}}
\newlabel{figs:twisting-cantilever-compare}{{8}{22}{Twisting cantilever: The time history of displacement at the end point $S$ in $z-$ direction. \relax }{figure.caption.9}{}}
\@writefile{lof}{\contentsline {figure}{\numberline {9}{\ignorespaces Ball free falling: Initial configuration (left panel) and body-fitted particle distribution of the ball (right panel). \relax }}{23}{figure.caption.10}}
\newlabel{figs:ball-collision-setup}{{9}{23}{Ball free falling: Initial configuration (left panel) and body-fitted particle distribution of the ball (right panel). \relax }{figure.caption.10}{}}
\@writefile{lof}{\contentsline {figure}{\numberline {10}{\ignorespaces Ball free falling: Four time instants as labeled by blue dots in Figure \ref  {figs:ball-collision-compare} of the ball deformation and von Mises stress. \relax }}{23}{figure.caption.11}}
\newlabel{figs:ball-collision-instant}{{10}{23}{Ball free falling: Four time instants as labeled by blue dots in Figure \ref {figs:ball-collision-compare} of the ball deformation and von Mises stress. \relax }{figure.caption.11}{}}
\@writefile{lof}{\contentsline {figure}{\numberline {11}{\ignorespaces Ball free falling: The time history of the displacement at ball center in vertical direction. \relax }}{24}{figure.caption.12}}
\newlabel{figs:ball-collision-compare}{{11}{24}{Ball free falling: The time history of the displacement at ball center in vertical direction. \relax }{figure.caption.12}{}}
\@writefile{lof}{\contentsline {figure}{\numberline {12}{\ignorespaces Two ball collision: Ball deformations and von Mises stress at (a) $t=0.5 s$, (b) $t=1.05 s$, (c) $t=1.08 s$ and (d) $t=1.5 s$. \relax }}{24}{figure.caption.13}}
\newlabel{figs:two-ball-collision}{{12}{24}{Two ball collision: Ball deformations and von Mises stress at (a) $t=0.5 s$, (b) $t=1.05 s$, (c) $t=1.08 s$ and (d) $t=1.5 s$. \relax }{figure.caption.13}{}}
\@writefile{lof}{\contentsline {figure}{\numberline {13}{\ignorespaces Two ball collision: The time history of the ball momentum in horizontal direction. \relax }}{25}{figure.caption.14}}
\newlabel{figs:two-ball-collision-compare}{{13}{25}{Two ball collision: The time history of the ball momentum in horizontal direction. \relax }{figure.caption.14}{}}
\@writefile{toc}{\contentsline {subsection}{\numberline {4.4}Block sliding}{25}{subsection.4.4}}
\newlabel{block sliding}{{4.4}{25}{Block sliding}{subsection.4.4}{}}
\newlabel{displacement}{{28}{25}{Block sliding}{equation.4.28}{}}
\citation{zhang2020multi}
\citation{zhang2020multi,fourey2017efficient,khayyer2018enhanced}
\citation{zhang2020multi}
\citation{zhang2020multi,fourey2017efficient,khayyer2018enhanced}
\citation{zhang2020multi}
\@writefile{lof}{\contentsline {figure}{\numberline {14}{\ignorespaces Block sliding: Initial configuration. \relax }}{26}{figure.caption.15}}
\newlabel{figs:sliding-setup}{{14}{26}{Block sliding: Initial configuration. \relax }{figure.caption.15}{}}
\@writefile{toc}{\contentsline {subsection}{\numberline {4.5}Hydrostatic water column on an elastic plate}{26}{subsection.4.5}}
\newlabel{hydrostatic-fsi}{{4.5}{26}{Hydrostatic water column on an elastic plate}{subsection.4.5}{}}
\@writefile{lof}{\contentsline {figure}{\numberline {15}{\ignorespaces Block sliding: (a) Distance between the block center and the slope and (b) displacement of the block center in $x-$ and $y-$ direction. \relax }}{27}{figure.caption.16}}
\newlabel{figs:block-sliding-compare}{{15}{27}{Block sliding: (a) Distance between the block center and the slope and (b) displacement of the block center in $x-$ and $y-$ direction. \relax }{figure.caption.16}{}}
\citation{zhang2020multi}
\@writefile{lot}{\contentsline {table}{\numberline {2}{\ignorespaces CPU time for viscous damping process in the simulation of hydrostatic water column on an elastic plate.\relax }}{29}{table.caption.20}}
\newlabel{hydrostatic-time}{{2}{29}{CPU time for viscous damping process in the simulation of hydrostatic water column on an elastic plate.\relax }{table.caption.20}{}}
\@writefile{lof}{\contentsline {figure}{\numberline {16}{\ignorespaces Hydrostatic water column on an elastic plate: Initial configuration. \relax }}{30}{figure.caption.17}}
\newlabel{figs:hydrostatic-setup}{{16}{30}{Hydrostatic water column on an elastic plate: Initial configuration. \relax }{figure.caption.17}{}}
\@writefile{lot}{\contentsline {table}{\numberline {3}{\ignorespaces Total CPU time during the simulation of hydrostatic water column on an elastic plate.\relax }}{30}{table.caption.22}}
\newlabel{hydrostatic-time-total}{{3}{30}{Total CPU time during the simulation of hydrostatic water column on an elastic plate.\relax }{table.caption.22}{}}
\@writefile{toc}{\contentsline {section}{\numberline {5}Conclusions}{30}{section.5}}
\newlabel{conclusions}{{5}{30}{Conclusions}{section.5}{}}
\@writefile{lof}{\contentsline {figure}{\numberline {17}{\ignorespaces Hydrostatic water column on an elastic plate: Mid-span displacement at resolution of $dp = bh/4$ (top panel) and a convergence study with increasing spatial resolutions (bottom panel). \relax }}{31}{figure.caption.18}}
\newlabel{figs:hydrostatic}{{17}{31}{Hydrostatic water column on an elastic plate: Mid-span displacement at resolution of $dp = bh/4$ (top panel) and a convergence study with increasing spatial resolutions (bottom panel). \relax }{figure.caption.18}{}}
\@writefile{lof}{\contentsline {figure}{\numberline {18}{\ignorespaces {\color  {red} Hydrostatic water column on an elastic plate: Fluid pressure near the midpoint of the plate.} \relax }}{32}{figure.caption.19}}
\newlabel{figs:hydrostatic-pressure}{{18}{32}{{\color {red} Hydrostatic water column on an elastic plate: Fluid pressure near the midpoint of the plate.} \relax }{figure.caption.19}{}}
\@writefile{lof}{\contentsline {figure}{\numberline {19}{\ignorespaces Hydrostatic water column on an elastic plate: Mid-span displacement at resolution of $dp = bh/4$ by pairwise splitting scheme. \relax }}{32}{figure.caption.21}}
\newlabel{figs:hydrostatic-pairwise}{{19}{32}{Hydrostatic water column on an elastic plate: Mid-span displacement at resolution of $dp = bh/4$ by pairwise splitting scheme. \relax }{figure.caption.21}{}}
\@writefile{toc}{\contentsline {section}{Acknowledgement}{32}{section*.23}}
\bibstyle{elsarticle-num}
\bibdata{viscous-damping}
\bibcite{belytschko1996meshless}{{1}{}{{}}{{}}}
\bibcite{liu2005introduction}{{2}{}{{}}{{}}}
\bibcite{liu2010smoothed}{{3}{}{{}}{{}}}
\bibcite{wang2019improvement}{{4}{}{{}}{{}}}
\bibcite{vacondio2021grand}{{5}{}{{}}{{}}}
\bibcite{monaghan2012smoothed}{{6}{}{{}}{{}}}
\bibcite{ye2019smoothed}{{7}{}{{}}{{}}}
\bibcite{luo2019consistent}{{8}{}{{}}{{}}}
\bibcite{luo2021particle}{{9}{}{{}}{{}}}
\bibcite{gotoh2018state}{{10}{}{{}}{{}}}
\bibcite{lucy1977numerical}{{11}{}{{}}{{}}}
\bibcite{gingold1977smoothed}{{12}{}{{}}{{}}}
\bibcite{monaghan1994simulating}{{13}{}{{}}{{}}}
\bibcite{shao2006simulation}{{14}{}{{}}{{}}}
\bibcite{zhang2017weakly}{{15}{}{{}}{{}}}
\bibcite{zhang2019weakly}{{16}{}{{}}{{}}}
\bibcite{peng2019improved}{{17}{}{{}}{{}}}
\bibcite{benz1995simulations}{{18}{}{{}}{{}}}
\bibcite{randles1996smoothed}{{19}{}{{}}{{}}}
\bibcite{monaghan2000sph}{{20}{}{{}}{{}}}
\bibcite{zhang2017generalized}{{21}{}{{}}{{}}}
\bibcite{ba2018thermomechanical}{{22}{}{{}}{{}}}
\bibcite{antoci2007}{{23}{}{{}}{{}}}
\bibcite{zhang2020multi}{{24}{}{{}}{{}}}
\bibcite{zhang2020integrative}{{25}{}{{}}{{}}}
\bibcite{chen2000generalized}{{26}{}{{}}{{}}}
\bibcite{bonet2002simplified}{{27}{}{{}}{{}}}
\bibcite{liu2005modeling}{{28}{}{{}}{{}}}
\bibcite{liu2006restoring}{{29}{}{{}}{{}}}
\bibcite{dyka1997stress}{{30}{}{{}}{{}}}
\bibcite{randles2000normalized}{{31}{}{{}}{{}}}
\bibcite{otter1966dynamic}{{32}{}{{}}{{}}}
\bibcite{belytschko2013nonlinear}{{33}{}{{}}{{}}}
\bibcite{jung2018dynamic}{{34}{}{{}}{{}}}
\bibcite{rodriguez2011numerical}{{35}{}{{}}{{}}}
\bibcite{alamatian2012new}{{36}{}{{}}{{}}}
\bibcite{rezaiee2014fictitious}{{37}{}{{}}{{}}}
\bibcite{lin2014efficient}{{38}{}{{}}{{}}}
\bibcite{lee2011simple}{{39}{}{{}}{{}}}
\bibcite{cundall1976explicit}{{40}{}{{}}{{}}}
\bibcite{douthe2009design}{{41}{}{{}}{{}}}
\bibcite{zardi2020new}{{42}{}{{}}{{}}}
\bibcite{contreras2008characterizing}{{43}{}{{}}{{}}}
\bibcite{zhang2020sphinxsys}{{44}{}{{}}{{}}}
\bibcite{zhang2021sphinxsys}{{45}{}{{}}{{}}}
\bibcite{vignjevic2006sph}{{46}{}{{}}{{}}}
\bibcite{han2018sph}{{47}{}{{}}{{}}}
\bibcite{wang2019split}{{48}{}{{}}{{}}}
\bibcite{mclachlan2002splitting}{{49}{}{{}}{{}}}
\bibcite{litvinov2010splitting}{{50}{}{{}}{{}}}
\bibcite{monaghan2019integration}{{51}{}{{}}{{}}}
\bibcite{strang1968}{{52}{}{{}}{{}}}
\bibcite{nguyen2009mass}{{53}{}{{}}{{}}}
\bibcite{nielsen2015neural}{{54}{}{{}}{{}}}
\bibcite{crisfield1997non}{{55}{}{{}}{{}}}
\bibcite{liu2003smoothed}{{56}{}{{}}{{}}}
\bibcite{wendland1995}{{57}{}{{}}{{}}}
\bibcite{fourey2017efficient}{{58}{}{{}}{{}}}
\bibcite{khayyer2018enhanced}{{59}{}{{}}{{}}}
\providecommand\NAT@force@numbers{}\NAT@force@numbers
