\relax 
\citation{lin2014efficient}
\citation{lin2014efficient}
\citation{litvinov2010splitting}
\citation{monaghan2019integration}
\bibdata{mybibfile}
\bibcite{lin2014efficient}{1}
\newlabel{viscosity-reset}{{1}{9}}
\bibcite{litvinov2010splitting}{2}
\bibcite{monaghan2019integration}{3}
\bibstyle{elsarticle-num}
